{"entities": [
 {
  "occurrences": [
   {
    "commonName": "North America",
    "offset": 81,
    "confidence": 1,
    "length": 13,
    "value": "North America"
   },
   {
    "commonName": "Amiens",
    "offset": 942,
    "confidence": 1,
    "length": 6,
    "value": "Amiens"
   },
   {
    "commonName": "Delaware",
    "offset": 1223,
    "confidence": 1,
    "length": 8,
    "value": "Delaware"
   },
   {
    "commonName": "United States",
    "offset": 1239,
    "confidence": 1,
    "length": 13,
    "value": "United States"
   },
   {
    "commonName": "Bermuda",
    "offset": 1254,
    "confidence": 1,
    "length": 7,
    "value": "Bermuda"
   },
   {
    "commonName": "Mauritius",
    "offset": 1263,
    "confidence": 1,
    "length": 9,
    "value": "Mauritius"
   },
   {
    "commonName": "Luxembourg",
    "offset": 1274,
    "confidence": 1,
    "length": 10,
    "value": "Luxembourg"
   },
   {
    "commonName": "United States",
    "offset": 1726,
    "confidence": 1,
    "length": 13,
    "value": "United States"
   }
  ],
  "type": "LOCATION"
 },
 {
  "occurrences": [
   {
    "commonName": "European Union",
    "offset": 161,
    "confidence": 1,
    "length": 14,
    "value": "European Union"
   },
   {
    "commonName": "International Consortium of Investigative Journalists",
    "offset": 246,
    "confidence": 1,
    "length": 53,
    "value": "International Consortium of Investigative Journalists"
   },
   {
    "commonName": "Le Monde",
    "offset": 657,
    "confidence": 1,
    "length": 8,
    "value": "Le Monde"
   },
   {
    "commonName": "Whirlpool",
    "offset": 916,
    "confidence": 1,
    "length": 9,
    "value": "Whirlpool"
   },
   {
    "commonName": "Appleby",
    "offset": 1368,
    "confidence": 1,
    "length": 7,
    "value": "Appleby"
   },
   {
    "commonName": "Whirlpool",
    "offset": 1569,
    "confidence": 1,
    "length": 9,
    "value": "Whirlpool"
   }
  ],
  "type": "ORGANIZATION"
 },
 {
  "occurrences": [
   {
    "commonName": "Le Monde",
    "offset": 308,
    "confidence": 1,
    "length": 8,
    "value": "Le Monde"
   },
   {
    "commonName": "Gabriel Zucman",
    "offset": 681,
    "confidence": 1,
    "length": 14,
    "value": "Gabriel Zucman"
   },
   {
    "commonName": "Marine Le Pen",
    "offset": 1062,
    "confidence": 1,
    "length": 13,
    "value": "Marine Le Pen"
   },
   {
    "commonName": "Emmanuel Macron",
    "offset": 1080,
    "confidence": 1,
    "length": 15,
    "value": "Emmanuel Macron"
   }
  ],
  "type": "PERSON"
 }
]}