{"entities": [
 {
  "occurrences": [
   {
    "commonName": "Benoit Hamon",
    "offset": 562,
    "confidence": 0.633,
    "length": 12,
    "value": "Benoit Hamon"
   },
   {
    "commonName": "Benoit Hamon",
    "offset": 1655,
    "confidence": 0.633,
    "length": 12,
    "value": "Benoit Hamon"
   },
   {
    "commonName": "Nathalie Arthaud",
    "offset": 767,
    "confidence": 0.407,
    "length": 16,
    "value": "Nathalie Arthaud"
   },
   {
    "commonName": "Emmanuel Macron",
    "offset": 57,
    "confidence": 0.387,
    "length": 15,
    "value": "Emmanuel Macron"
   },
   {
    "commonName": "Emmanuel Macron",
    "offset": 982,
    "confidence": 0.387,
    "length": 9,
    "value": "E. Macron"
   },
   {
    "commonName": "Emmanuel Macron",
    "offset": 1627,
    "confidence": 0.387,
    "length": 6,
    "value": "Macron"
   },
   {
    "commonName": "Nicolas Dupont-Aignan",
    "offset": 622,
    "confidence": 0.645,
    "length": 21,
    "value": "Nicolas Dupont-Aignan"
   },
   {
    "commonName": "Francois Asselineau",
    "offset": 787,
    "confidence": 0.407,
    "length": 19,
    "value": "Francois Asselineau"
   },
   {
    "commonName": "Philippe Poutou",
    "offset": 686,
    "confidence": 0.407,
    "length": 15,
    "value": "Philippe Poutou"
   },
   {
    "commonName": "Francois Fillon",
    "offset": 383,
    "confidence": 0.633,
    "length": 15,
    "value": "Francois Fillon"
   },
   {
    "commonName": "Francois Fillon",
    "offset": 1590,
    "confidence": 0.633,
    "length": 15,
    "value": "Francois Fillon"
   },
   {
    "commonName": "Jean Lassalle",
    "offset": 721,
    "confidence": 0.645,
    "length": 13,
    "value": "Jean Lassalle"
   },
   {
    "commonName": "Jean-Luc Melenchon",
    "offset": 500,
    "confidence": 0.395,
    "length": 18,
    "value": "Jean-Luc Melenchon"
   },
   {
    "commonName": "Jean-Luc Melenchon",
    "offset": 1421,
    "confidence": 0.395,
    "length": 18,
    "value": "Jean-Luc Melenchon"
   },
   {
    "commonName": "Jacques Cheminade",
    "offset": 841,
    "confidence": 0.645,
    "length": 17,
    "value": "Jacques Cheminade"
   }
  ],
  "type": "Person"
 },
 {
  "occurrences": [{
   "commonName": "France",
   "offset": 483,
   "confidence": 0,
   "length": 6,
   "value": "France"
  }],
  "type": "Country"
 }
]}