{
	"entities": [
		{
			"occurrences": [
				{ "value": "Europe" }
			],
			"type": "Continent"
		},
		{
			"occurrences": [
				{ "value": "National Front" },
				{ "value": "National Front" },
				{ "value": "National Front" }
			],
			"type": "Organization"
		},
		{
			"occurrences": [
				{ "value": "Marine Le Pen" },
				{ "value": "Steeve Briois" }
			],
			"type": "Person"
		},
		{
			"occurrences": [
				{ "value": "secretary general" }
			],
			"type": "Position"
		}
			
	]
}